%TF.GenerationSoftware,KiCad,Pcbnew,7.0.1-3b83917a11~172~ubuntu22.04.1*%
%TF.CreationDate,2023-04-14T20:00:24+02:00*%
%TF.ProjectId,mutual_resonance,6d757475-616c-45f7-9265-736f6e616e63,v01*%
%TF.SameCoordinates,Original*%
%TF.FileFunction,Paste,Bot*%
%TF.FilePolarity,Positive*%
%FSLAX46Y46*%
G04 Gerber Fmt 4.6, Leading zero omitted, Abs format (unit mm)*
G04 Created by KiCad (PCBNEW 7.0.1-3b83917a11~172~ubuntu22.04.1) date 2023-04-14 20:00:24*
%MOMM*%
%LPD*%
G01*
G04 APERTURE LIST*
%ADD10R,1.000000X3.150000*%
G04 APERTURE END LIST*
D10*
%TO.C,J1*%
X84328000Y-75931000D03*
X84328000Y-70881000D03*
X81788000Y-75931000D03*
X81788000Y-70881000D03*
X79248000Y-75931000D03*
X79248000Y-70881000D03*
X76708000Y-75931000D03*
X76708000Y-70881000D03*
X74168000Y-75931000D03*
X74168000Y-70881000D03*
%TD*%
M02*
